<?xml version="1.0" encoding="UTF-8"?>
<svg width="129px" height="25px" viewBox="0 0 129 25" version="1.1" xmlns="http://www.w3.org/2000/svg" xmlns:xlink="http://www.w3.org/1999/xlink" style="background: #FFFFFF;">
    <!-- Generator: Sketch 43.2 (39069) - http://www.bohemiancoding.com/sketch -->
    <title>logo</title>
    <desc>Created with Sketch.</desc>
    <defs></defs>
    <g id="Page-5" stroke="none" stroke-width="1" fill="none" fill-rule="evenodd">
        <g id="logo">
            <path d="M19.17,18.204 L19.17,2.694 L14.91,2.694 L14.91,10.824 C14.91,12.4040079 14.6500026,13.5389966 14.13,14.229 C13.6099974,14.9190035 12.7700058,15.264 11.61,15.264 C10.5899949,15.264 9.880002,14.9490032 9.48,14.319 C9.079998,13.6889969 8.88,12.7340064 8.88,11.454 L8.88,2.694 L4.62,2.694 L4.62,12.234 C4.62,13.1940048 4.70499915,14.0689961 4.875,14.859 C5.04500085,15.649004 5.3399979,16.3189973 5.76,16.869 C6.1800021,17.4190028 6.75499635,17.8439985 7.485,18.144 C8.21500365,18.4440015 9.1499943,18.594 10.29,18.594 C11.1900045,18.594 12.0699957,18.394002 12.93,17.994 C13.7900043,17.593998 14.4899973,16.9440045 15.03,16.044 L15.12,16.044 L15.12,18.204 L19.17,18.204 Z M28.64,15.414 C29.3400035,15.414 29.9249976,15.2740014 30.395,14.994 C30.8650023,14.7139986 31.2449985,14.3490023 31.535,13.899 C31.8250014,13.4489978 32.0299994,12.924003 32.15,12.324 C32.2700006,11.723997 32.33,11.1140031 32.33,10.494 C32.33,9.8739969 32.2650006,9.264003 32.135,8.664 C32.0049993,8.063997 31.7900015,7.52900235 31.49,7.059 C31.1899985,6.58899765 30.8050023,6.20900145 30.335,5.919 C29.8649976,5.62899855 29.2900034,5.484 28.61,5.484 C27.9099965,5.484 27.3250023,5.62899855 26.855,5.919 C26.3849976,6.20900145 26.0050014,6.5839977 25.715,7.044 C25.4249985,7.5040023 25.2200006,8.033997 25.1,8.634 C24.9799994,9.234003 24.92,9.8539968 24.92,10.494 C24.92,11.1140031 24.9849993,11.723997 25.115,12.324 C25.2450006,12.924003 25.4549985,13.4489978 25.745,13.899 C26.0350014,14.3490023 26.4199976,14.7139986 26.9,14.994 C27.3800024,15.2740014 27.9599966,15.414 28.64,15.414 Z M20.81,2.694 L24.86,2.694 L24.86,4.674 L24.92,4.674 C25.4400026,3.8339958 26.099996,3.2240019 26.9,2.844 C27.700004,2.4639981 28.5799952,2.274 29.54,2.274 C30.7600061,2.274 31.8099956,2.5039977 32.69,2.964 C33.5700044,3.4240023 34.2999971,4.0339962 34.88,4.794 C35.4600029,5.5540038 35.8899986,6.43899495 36.17,7.449 C36.4500014,8.45900505 36.59,9.5139945 36.59,10.614 C36.59,11.6540052 36.4500014,12.6539952 36.17,13.614 C35.8899986,14.5740048 35.4650028,15.4239963 34.895,16.164 C34.3249971,16.9040037 33.6150042,17.4939978 32.765,17.934 C31.9149957,18.3740022 30.9200057,18.594 29.78,18.594 C28.8199952,18.594 27.935004,18.399002 27.125,18.009 C26.3149959,17.6189981 25.6500026,17.0440038 25.13,16.284 L25.07,16.284 L25.07,23.634 L20.81,23.634 L20.81,2.694 Z M45.37,15.414 C46.0700035,15.414 46.6549976,15.2740014 47.125,14.994 C47.5950023,14.7139986 47.9749985,14.3490023 48.265,13.899 C48.5550014,13.4489978 48.7599994,12.924003 48.88,12.324 C49.0000006,11.723997 49.06,11.1140031 49.06,10.494 C49.06,9.8739969 48.9950006,9.264003 48.865,8.664 C48.7349993,8.063997 48.5200015,7.52900235 48.22,7.059 C47.9199985,6.58899765 47.5350023,6.20900145 47.065,5.919 C46.5949976,5.62899855 46.0200034,5.484 45.34,5.484 C44.6399965,5.484 44.0550023,5.62899855 43.585,5.919 C43.1149976,6.20900145 42.7350014,6.5839977 42.445,7.044 C42.1549985,7.5040023 41.9500006,8.033997 41.83,8.634 C41.7099994,9.234003 41.65,9.8539968 41.65,10.494 C41.65,11.1140031 41.7149993,11.723997 41.845,12.324 C41.9750006,12.924003 42.1849985,13.4489978 42.475,13.899 C42.7650014,14.3490023 43.1499976,14.7139986 43.63,14.994 C44.1100024,15.2740014 44.6899966,15.414 45.37,15.414 Z M37.54,2.694 L41.59,2.694 L41.59,4.674 L41.65,4.674 C42.1700026,3.8339958 42.829996,3.2240019 43.63,2.844 C44.430004,2.4639981 45.3099952,2.274 46.27,2.274 C47.4900061,2.274 48.5399956,2.5039977 49.42,2.964 C50.3000044,3.4240023 51.0299971,4.0339962 51.61,4.794 C52.1900029,5.5540038 52.6199986,6.43899495 52.9,7.449 C53.1800014,8.45900505 53.32,9.5139945 53.32,10.614 C53.32,11.6540052 53.1800014,12.6539952 52.9,13.614 C52.6199986,14.5740048 52.1950028,15.4239963 51.625,16.164 C51.0549971,16.9040037 50.3450042,17.4939978 49.495,17.934 C48.6449957,18.3740022 47.6500057,18.594 46.51,18.594 C45.5499952,18.594 44.665004,18.399002 43.855,18.009 C43.0449959,17.6189981 42.3800026,17.0440038 41.86,16.284 L41.8,16.284 L41.8,23.634 L37.54,23.634 L37.54,2.694 Z M64.7099999,8.784 C64.5099989,7.7039946 64.1550025,6.8840028 63.6449999,6.324 C63.1349974,5.7639972 62.3600051,5.484 61.3199999,5.484 C60.6399965,5.484 60.0750022,5.59899885 59.6249999,5.829 C59.1749977,6.05900115 58.8150013,6.3439983 58.5449999,6.684 C58.2749986,7.0240017 58.0850005,7.3839981 57.9749999,7.764 C57.8649994,8.1440019 57.8,8.4839985 57.7799999,8.784 L64.7099999,8.784 Z M57.7799999,11.484 C57.8400002,12.8640069 58.1899967,13.8639969 58.8299999,14.484 C59.4700031,15.1040031 60.3899939,15.414 61.5899999,15.414 C62.4500042,15.414 63.1899968,15.1990022 63.8099999,14.769 C64.430003,14.3389979 64.8099992,13.8840024 64.9499999,13.404 L68.6999999,13.404 C68.0999969,15.2640093 67.1800061,16.593996 65.9399999,17.394 C64.6999937,18.194004 63.2000087,18.594 61.4399999,18.594 C60.2199938,18.594 59.1200048,18.399002 58.1399999,18.009 C57.159995,17.6189981 56.3300033,17.0640036 55.6499999,16.344 C54.9699965,15.6239964 54.4450018,14.764005 54.0749999,13.764 C53.7049981,12.763995 53.5199999,11.664006 53.5199999,10.464 C53.5199999,9.3039942 53.709998,8.224005 54.0899999,7.224 C54.4700018,6.223995 55.0099964,5.35900365 55.7099999,4.629 C56.4100034,3.89899635 57.2449951,3.3240021 58.2149999,2.904 C59.1850048,2.4839979 60.259994,2.274 61.4399999,2.274 C62.7600065,2.274 63.909995,2.52899745 64.8899999,3.039 C65.8700048,3.54900255 66.6749968,4.2339957 67.3049999,5.094 C67.9350031,5.9540043 68.3899985,6.9339945 68.6699999,8.034 C68.9500013,9.1340055 69.0500003,10.283994 68.9699999,11.484 L57.7799999,11.484 Z M69.8899999,2.694 L73.9399999,2.694 L73.9399999,5.574 L73.9999999,5.574 C74.2000009,5.0939976 74.4699982,4.64900205 74.8099999,4.239 C75.1500016,3.82899795 75.5399977,3.47900145 75.9799999,3.189 C76.4200021,2.89899855 76.8899974,2.6740008 77.3899999,2.514 C77.8900024,2.3539992 78.4099972,2.274 78.9499999,2.274 C79.2300013,2.274 79.5399982,2.3239995 79.8799999,2.424 L79.8799999,6.384 C79.6799989,6.3439998 79.4400013,6.30900015 79.1599999,6.279 C78.8799985,6.24899985 78.6100012,6.234 78.3499999,6.234 C77.569996,6.234 76.9100026,6.3639987 76.3699999,6.624 C75.8299972,6.8840013 75.3950016,7.23899775 75.0649999,7.689 C74.7349983,8.13900225 74.5000006,8.663997 74.3599999,9.264 C74.2199992,9.864003 74.1499999,10.5139965 74.1499999,11.214 L74.1499999,18.204 L69.8899999,18.204 L69.8899999,2.694 Z M89.9799999,8.154 C89.6999985,6.3739911 88.650009,5.484 86.8299999,5.484 C86.1499965,5.484 85.5800022,5.63899845 85.1199999,5.949 C84.6599976,6.25900155 84.2850013,6.65899755 83.9949999,7.149 C83.7049984,7.63900245 83.5000005,8.17899705 83.3799999,8.769 C83.2599993,9.35900295 83.1999999,9.9439971 83.1999999,10.524 C83.1999999,11.0840028 83.2599993,11.6539971 83.3799999,12.234 C83.5000005,12.8140029 83.6949985,13.3389977 83.9649999,13.809 C84.2350012,14.2790024 84.5999976,14.6639985 85.0599999,14.964 C85.5200022,15.2640015 86.0799966,15.414 86.7399999,15.414 C87.760005,15.414 88.5449971,15.1290029 89.0949999,14.559 C89.6450026,13.9889972 89.9899992,13.2240048 90.1299999,12.264 L94.2399999,12.264 C93.9599985,14.3240103 93.1600065,15.8939946 91.8399999,16.974 C90.5199933,18.0540054 88.8300102,18.594 86.7699999,18.594 C85.6099941,18.594 84.5450047,18.399002 83.5749999,18.009 C82.604995,17.6189981 81.7800033,17.0740035 81.0999999,16.374 C80.4199965,15.6739965 79.8900018,14.8390049 79.5099999,13.869 C79.129998,12.8989952 78.9399999,11.8340058 78.9399999,10.674 C78.9399999,9.473994 79.1149981,8.35900515 79.4649999,7.329 C79.8150016,6.29899485 80.3299965,5.40900375 81.0099999,4.659 C81.6900033,3.90899625 82.519995,3.3240021 83.4999999,2.904 C84.4800048,2.4839979 85.5999936,2.274 86.8599999,2.274 C87.7800045,2.274 88.6649956,2.3939988 89.5149999,2.634 C90.3650041,2.8740012 91.1249965,3.23899755 91.7949999,3.729 C92.4650032,4.21900245 93.0099978,4.82899635 93.4299999,5.559 C93.850002,6.28900365 94.0899996,7.153995 94.1499999,8.154 L89.9799999,8.154 Z M109.59,18.204 L109.59,2.694 L105.33,2.694 L105.33,10.824 C105.33,12.4040079 105.070002,13.5389966 104.55,14.229 C104.029997,14.9190035 103.190006,15.264 102.03,15.264 C101.009995,15.264 100.300002,14.9490032 99.8999999,14.319 C99.4999979,13.6889969 99.2999999,12.7340064 99.2999999,11.454 L99.2999999,2.694 L95.0399999,2.694 L95.0399999,12.234 C95.0399999,13.1940048 95.124999,14.0689961 95.2949999,14.859 C95.4650007,15.649004 95.7599978,16.3189973 96.1799999,16.869 C96.600002,17.4190028 97.1749962,17.8439985 97.9049999,18.144 C98.6350035,18.4440015 99.5699942,18.594 100.71,18.594 C101.610004,18.594 102.489996,18.394002 103.35,17.994 C104.210004,17.593998 104.909997,16.9440045 105.45,16.044 L105.54,16.044 L105.54,18.204 L109.59,18.204 Z M116.63,2.694 L116.63,-1.956 L112.37,-1.956 L112.37,2.694 L109.79,2.694 L109.79,5.544 L112.37,5.544 L112.37,14.694 C112.37,15.4740039 112.499999,16.1039976 112.76,16.584 C113.020001,17.0640024 113.374998,17.4339987 113.825,17.694 C114.275002,17.9540013 114.794997,18.1289996 115.385,18.219 C115.975003,18.3090005 116.599997,18.354 117.26,18.354 C117.680002,18.354 118.109998,18.3440001 118.55,18.324 C118.990002,18.3039999 119.389998,18.2640003 119.75,18.204 L119.75,14.904 C119.549999,14.9440002 119.340001,14.9739999 119.12,14.994 C118.899999,15.0140001 118.670001,15.024 118.43,15.024 C117.709996,15.024 117.230001,14.9040012 116.99,14.664 C116.749999,14.4239988 116.63,13.9440036 116.63,13.224 L116.63,5.544 L123.75,5.544 L123.75,2.694 L116.63,2.694 Z" id="Uppercut" fill="#000000"></path>
            <polygon id="Rectangle" fill="#FFFFFF" transform="translate(64.504363, 3.140653) rotate(-0.500000) translate(-64.504363, -3.140653) " points="0.0130893051 -1.83725195 129.013089 -1.83725195 129.021816 4.11878613 -0.0130903014 8.11863382"></polygon>
        </g>
    </g>
</svg>